%YAML 1.1
%TAG !u! tag:unity3d.com,2011:
--- !u!74 &7400000
AnimationClip:
  m_ObjectHideFlags: 0
  m_CorrespondingSourceObject: {fileID: 0}
  m_PrefabInstance: {fileID: 0}
  m_PrefabAsset: {fileID: 0}
  m_Name: Bronze
  serializedVersion: 6
  m_Legacy: 0
  m_Compressed: 0
  m_UseHighQualityCurve: 1
  m_RotationCurves: []
  m_CompressedRotationCurves: []
  m_EulerCurves: []
  m_PositionCurves: []
  m_ScaleCurves: []
  m_FloatCurves: []
  m_PPtrCurves:
  - curve:
    - time: 0
      value: {fileID: 21300000, guid: c4394efd4431b9845b521ac6d3b11322, type: 3}
    - time: 0.083333336
      value: {fileID: 21300000, guid: 6ef9076d22bb85f4e948ef7d59b5c475, type: 3}
    - time: 0.16666667
      value: {fileID: 21300000, guid: 86246e4e76edfa24781e2e470b9554d9, type: 3}
    - time: 0.25
      value: {fileID: 21300000, guid: 2f1ec7c3a5fc68f428ac001a0ce0b6b1, type: 3}
    - time: 0.33333334
      value: {fileID: 21300000, guid: 70070c5465f07364e88d107534b8f8b4, type: 3}
    - time: 0.41666666
      value: {fileID: 21300000, guid: 2cb595ec40994d04791368f581f70d54, type: 3}
    - time: 0.5
      value: {fileID: 21300000, guid: ac6640f00bf71c24fbc10f7f3a85abb1, type: 3}
    - time: 0.5833333
      value: {fileID: 21300000, guid: a530e3d40bf16464298057e661421667, type: 3}
    - time: 0.6666667
      value: {fileID: 21300000, guid: ad220173a1d15114a9d2ece5e49ebb47, type: 3}
    - time: 0.75
      value: {fileID: 21300000, guid: a6fdaf6eecf203949af683c8d16b3a27, type: 3}
    - time: 0.8333333
      value: {fileID: 21300000, guid: ea0fbd28850b5f844a11b8a46ac40e0f, type: 3}
    - time: 0.9166667
      value: {fileID: 21300000, guid: 76c9db33a12f5e447a50fc8fbb277891, type: 3}
    - time: 1
      value: {fileID: 21300000, guid: 73e8faf30b2a0fc41927e68040b2a073, type: 3}
    - time: 1.0833334
      value: {fileID: 21300000, guid: a6594bc10b150214582818c16819c226, type: 3}
    - time: 1.1666666
      value: {fileID: 21300000, guid: 27746c147e9b98c4b9941e090e8470e5, type: 3}
    - time: 1.25
      value: {fileID: 21300000, guid: 637f2ba235755f248acbab54dff4e550, type: 3}
    - time: 1.3333334
      value: {fileID: 21300000, guid: ce66b4dbd0f01dc4ba7dccd7be12a16d, type: 3}
    - time: 1.4166666
      value: {fileID: 21300000, guid: 0f076485798c03e4298eaf65f6cc203c, type: 3}
    - time: 1.5
      value: {fileID: 21300000, guid: 975b6c2e39199cf4da66f8891f0fad71, type: 3}
    - time: 1.5833334
      value: {fileID: 21300000, guid: d1bbf79745ee2df4d9f1e92883e5ec9c, type: 3}
    - time: 1.6666666
      value: {fileID: 21300000, guid: 15caf7eba68c06f4f8772889c588cb02, type: 3}
    - time: 1.75
      value: {fileID: 21300000, guid: 0176f5c5d2090474eb6565d5a0d6f405, type: 3}
    - time: 1.8333334
      value: {fileID: 21300000, guid: 4ad4651a4df37b54f80a8db3abede07b, type: 3}
    - time: 1.9166666
      value: {fileID: 21300000, guid: 205c5f0afd2585643bd69e28a1036906, type: 3}
    - time: 2
      value: {fileID: 21300000, guid: de42c756eb944934eb23219791ccf9fc, type: 3}
    - time: 2.0833333
      value: {fileID: 21300000, guid: 15eb1cffc13bbb2498f76d1af9e98ed6, type: 3}
    - time: 2.1666667
      value: {fileID: 21300000, guid: 8747c91c0040e5548aee67b9e7d2201d, type: 3}
    - time: 2.25
      value: {fileID: 21300000, guid: 7474e330970e95042b12765191e12f14, type: 3}
    - time: 2.3333333
      value: {fileID: 21300000, guid: fc38d35aa0021dc409978a8dc1e3aed8, type: 3}
    - time: 2.4166667
      value: {fileID: 21300000, guid: ee3ea07d9d608924dab771572d478f54, type: 3}
    attribute: m_Sprite
    path: 
    classID: 212
    script: {fileID: 0}
  m_SampleRate: 12
  m_WrapMode: 0
  m_Bounds:
    m_Center: {x: 0, y: 0, z: 0}
    m_Extent: {x: 0, y: 0, z: 0}
  m_ClipBindingConstant:
    genericBindings:
    - serializedVersion: 2
      path: 0
      attribute: 0
      script: {fileID: 0}
      typeID: 212
      customType: 23
      isPPtrCurve: 1
    pptrCurveMapping:
    - {fileID: 21300000, guid: c4394efd4431b9845b521ac6d3b11322, type: 3}
    - {fileID: 21300000, guid: 6ef9076d22bb85f4e948ef7d59b5c475, type: 3}
    - {fileID: 21300000, guid: 86246e4e76edfa24781e2e470b9554d9, type: 3}
    - {fileID: 21300000, guid: 2f1ec7c3a5fc68f428ac001a0ce0b6b1, type: 3}
    - {fileID: 21300000, guid: 70070c5465f07364e88d107534b8f8b4, type: 3}
    - {fileID: 21300000, guid: 2cb595ec40994d04791368f581f70d54, type: 3}
    - {fileID: 21300000, guid: ac6640f00bf71c24fbc10f7f3a85abb1, type: 3}
    - {fileID: 21300000, guid: a530e3d40bf16464298057e661421667, type: 3}
    - {fileID: 21300000, guid: ad220173a1d15114a9d2ece5e49ebb47, type: 3}
    - {fileID: 21300000, guid: a6fdaf6eecf203949af683c8d16b3a27, type: 3}
    - {fileID: 21300000, guid: ea0fbd28850b5f844a11b8a46ac40e0f, type: 3}
    - {fileID: 21300000, guid: 76c9db33a12f5e447a50fc8fbb277891, type: 3}
    - {fileID: 21300000, guid: 73e8faf30b2a0fc41927e68040b2a073, type: 3}
    - {fileID: 21300000, guid: a6594bc10b150214582818c16819c226, type: 3}
    - {fileID: 21300000, guid: 27746c147e9b98c4b9941e090e8470e5, type: 3}
    - {fileID: 21300000, guid: 637f2ba235755f248acbab54dff4e550, type: 3}
    - {fileID: 21300000, guid: ce66b4dbd0f01dc4ba7dccd7be12a16d, type: 3}
    - {fileID: 21300000, guid: 0f076485798c03e4298eaf65f6cc203c, type: 3}
    - {fileID: 21300000, guid: 975b6c2e39199cf4da66f8891f0fad71, type: 3}
    - {fileID: 21300000, guid: d1bbf79745ee2df4d9f1e92883e5ec9c, type: 3}
    - {fileID: 21300000, guid: 15caf7eba68c06f4f8772889c588cb02, type: 3}
    - {fileID: 21300000, guid: 0176f5c5d2090474eb6565d5a0d6f405, type: 3}
    - {fileID: 21300000, guid: 4ad4651a4df37b54f80a8db3abede07b, type: 3}
    - {fileID: 21300000, guid: 205c5f0afd2585643bd69e28a1036906, type: 3}
    - {fileID: 21300000, guid: de42c756eb944934eb23219791ccf9fc, type: 3}
    - {fileID: 21300000, guid: 15eb1cffc13bbb2498f76d1af9e98ed6, type: 3}
    - {fileID: 21300000, guid: 8747c91c0040e5548aee67b9e7d2201d, type: 3}
    - {fileID: 21300000, guid: 7474e330970e95042b12765191e12f14, type: 3}
    - {fileID: 21300000, guid: fc38d35aa0021dc409978a8dc1e3aed8, type: 3}
    - {fileID: 21300000, guid: ee3ea07d9d608924dab771572d478f54, type: 3}
  m_AnimationClipSettings:
    serializedVersion: 2
    m_AdditiveReferencePoseClip: {fileID: 0}
    m_AdditiveReferencePoseTime: 0
    m_StartTime: 0
    m_StopTime: 2.5
    m_OrientationOffsetY: 0
    m_Level: 0
    m_CycleOffset: 0
    m_HasAdditiveReferencePose: 0
    m_LoopTime: 1
    m_LoopBlend: 0
    m_LoopBlendOrientation: 0
    m_LoopBlendPositionY: 0
    m_LoopBlendPositionXZ: 0
    m_KeepOriginalOrientation: 0
    m_KeepOriginalPositionY: 1
    m_KeepOriginalPositionXZ: 0
    m_HeightFromFeet: 0
    m_Mirror: 0
  m_EditorCurves: []
  m_EulerEditorCurves: []
  m_HasGenericRootTransform: 0
  m_HasMotionFloatCurves: 0
  m_Events: []
